Chapter 2 Data Cleaning | Personality Predictors of Dementia Diagnosis and Neuropathic Burden: A Mega-Analysis
…
hrs_codebook <- (codebook %>% filter(study == "HRS"))$codebook[[1]] %>% 
  mutate(orig_itemname = str_to_upper(orig_itemname)) %>%
  mutate_at(vars(orig_itemname, name, itemname), ~str_remove_all(., "[[:space:]]"))
hrs_codebook

## # A tibble: 702 × 17
##    study dataset category name  itemname  wave waveletter  year orig_itemname description scale reverse_code
##    <chr> <chr>   <chr>    <chr> <chr>    <dbl> <chr>      <dbl> <chr>         <chr>       <chr> <chr>       
##  1 hrs   Rand    cogniti… cogn… digitsB…     3 <NA>        1996 R3BWC20       BACKWARDS … "0.I… no          
##  2 hrs   Rand    cogniti… cogn… digitsB…     4 <NA>        1998 R4BWC20       BACKWARDS … "0.I… no          
##  3 hrs   Rand    cogniti… cogn… digitsB…     5 <NA>        2000 R5BWC20       BACKWARDS … "0.I… no          
##  4 hrs   Rand    cogniti… cogn… digitsB…     6 <NA>        2002 R6BWC20       BACKWARDS … "0.I… no          
##  5 hrs   Rand    cogniti… cogn… digitsB…     7 <NA>        2004 R7BWC20       BACKWARDS … "0.I… no          
##  6 hrs   Rand    cogniti… cogn… digitsB…     8 <NA>        2006 R8BWC20       BACKWARDS … "0.I… no          
##  7 hrs   Rand    cogniti… cogn… digitsB…     9 <NA>        2008 R9BWC20       BACKWARDS … "0.I… no          
##  8 hrs   Rand    cogniti… cogn… digitsB…    10 <NA>        2010 R10BWC20      BACKWARDS … "0.I… no          
##  9 hrs   Rand    cogniti… cogn… digitsB…    11 <NA>        2012 R11BWC20      BACKWARDS … "0.I… no          
## 10 hrs   Rand    cogniti… cogn… digitsB…    12 <NA>        2014 R12BWC20      BACKWARDS … "0.I… no          
## # ℹ 692 more rows
## # ℹ 5 more variables: recode <chr>, mini <dbl>, maxi <dbl>, comp_rule <chr>, long_rule <chr>
…
hrs_cov

## # A tibble: 28,726 × 19
##    p_year      SID alcohol   BMI cancer diabetes education exercise gender heartProb height married  race
##     <dbl>    <dbl>   <dbl> <dbl>  <dbl>    <dbl>     <dbl>    <dbl>  <dbl>     <dbl>  <dbl>   <dbl> <dbl>
##  1   2006     3010       1  28.8      0        0        12     2.02      0         1   165.       1     0
##  2   2006     3020       1  28.8      1        0        16     1.77      1         0   165.       1     0
##  3   2006 10001010       0  23.5      0        0        12     1.88      0         0   183.       0     0
##  4   2006 10003030       0  28.5      0        0        16     1.25      1         1   157.       1     0
##  5   2006 10004010       1  27.0      1        0        16     1.75      0         0   185.       1     0
##  6   2006 10004040       1  27.0      0        0        12     2         1         0   165.       1     0
##  7   2006 10013010       0  28.2      0        1        12     1.57      0         1   177.       1     0
##  8   2006 10013040       1  24.5      0        0        13     1.5       1         0   160.       1     0
##  9   2006 10038010       1  23.3      0        0        16     1.75      0         1   177.       1     0
## 10   2006 10038040       1  23.3      0        0        16     1.78      1         0   170.       1     0
## # ℹ 28,716 more rows
## # ℹ 6 more variables: respDis <dbl>, smokes <dbl>, SRhealth <dbl>, stroke <dbl>, weight <dbl>,
## #   yearBrth <dbl>
…
# create composites
hrs_pers <- hrs_pers %>%
  group_by(name, comp_rule, year) %>%
  nest() %>%
  ungroup() %>%
  mutate(data = map2(data, comp_rule, comp_fun)) %>%
  unnest(data) %>%
  select(-comp_rule)

hrs_pers

## # A tibble: 116,915 × 4
##     year name       SID value
##    <dbl> <chr>    <dbl> <dbl>
##  1  2006 A         3010   3  
##  2  2006 A         3020   3  
##  3  2006 A     10001010   4  
##  4  2006 A     10003030   3.4
##  5  2006 A     10004010   3.4
##  6  2006 A     10004040   3.6
##  7  2006 A     10013010   2  
##  8  2006 A     10013040   2.6
##  9  2006 A     10038010   3.4
## 10  2006 A     10038040   2.6
## # ℹ 116,905 more rows
…
hrs_cog

## # A tibble: 16,778 × 2
##         SID cognition
##       <dbl>     <dbl>
##  1     3010      7.5 
##  2     3020      8.08
##  3 10001010      8.75
##  4 10003030      6   
##  5 10004010      7.92
##  6 10004040      8.83
##  7 10013010      7.25
##  8 10013040      8.67
##  9 10038010      8.58
## 10 10038040      8.25
## # ℹ 16,768 more rows
…
hrs_out

## # A tibble: 27,187 × 5
##         SID p_year o_year name     value
##       <dbl>  <dbl>  <dbl> <chr>    <dbl>
##  1     3010   2006   2010 dementia     1
##  2     3020   2006   2014 dementia     0
##  3 10001010   2006   2014 dementia     0
##  4 10003030   2006   2014 dementia     0
##  5 10004010   2006   2010 dementia     0
##  6 10004040   2006   2014 dementia     0
##  7 10013010   2006   2014 dementia     1
##  8 10013040   2006   2014 dementia     0
##  9 10038010   2006   2014 dementia     0
## 10 10038040   2006   2014 dementia     0
## # ℹ 27,177 more rows
…
hrs_combined

## # A tibble: 112,097 × 27
##    p_year Trait      SID p_value Outcome  o_value o_year alcohol   BMI cancer diabetes education exercise
##     <dbl> <chr>    <dbl>   <dbl> <chr>      <dbl>  <dbl>   <dbl> <dbl>  <dbl>    <dbl>     <dbl>    <dbl>
##  1   2006 A         3010     3   dementia       1   2010       1  28.8      0        0        12     2.02
##  2   2006 A         3020     3   dementia       0   2014       1  28.8      1        0        16     1.77
##  3   2006 A     10001010     4   dementia       0   2014       0  23.5      0        0        12     1.88
##  4   2006 A     10003030     3.4 dementia       0   2014       0  28.5      0        0        16     1.25
##  5   2006 A     10004010     3.4 dementia       0   2010       1  27.0      1        0        16     1.75
##  6   2006 A     10004040     3.6 dementia       0   2014       1  27.0      0        0        12     2   
##  7   2006 A     10013010     2   dementia       1   2014       0  28.2      0        1        12     1.57
##  8   2006 A     10013040     2.6 dementia       0   2014       1  24.5      0        0        13     1.5 
##  9   2006 A     10038010     3.4 dementia       0   2014       1  23.3      0        0        16     1.75
## 10   2006 A     10038040     2.6 dementia       0   2014       1  23.3      0        0        16     1.78
## # ℹ 112,087 more rows
## # ℹ 14 more variables: gender <dbl>, heartProb <dbl>, height <dbl>, married <dbl>, race <dbl>,
## #   respDis <dbl>, smokes <dbl>, SRhealth <dbl>, stroke <dbl>, weight <dbl>, yearBrth <dbl>,
## #   dementia <dbl>, cognition <dbl>, age <dbl>
…
2.2 RUSH Memory and and Aging Project (RUSH-MAP)

The RUSH Memory and Aging Project (RUSH-MAP) is an ongoing longitudinal study that began in 1997 (a2012overview?). These data are available, through application from https://www.radc.rush.edu/requests.htm.

Participants who were 65 and older were recruited from retirement communities and subsidized senior housing facilities throughout Chicagoland and northeastern Illinois beginning in 1997. Data are collected annually, and all participants are organ donors. Additional participants are recuited each year. Additional information and documentation on the data can be found at https://www.radc.rush.edu/docs/var/variables.htm.

Sample sizes vary by year, ranging from 52 (1997) to 2205 participants including 884 deceased participants with autopsy data (2019, 2020). This provides 99% power to detect a zero-order correlation effect size of ~.10, two-tailed at alpha .05.

2.2.1 Load Data

(map_codebook <- (codebook %>% filter(study == "RADC-MAP"))$codebook[[1]] %>%
  mutate(orig_itemname = str_to_lower(orig_itemname)))

## # A tibble: 44 × 15
##    study    dataset category  name  itemname year  orig_itemname description scale reverse_code recode  mini
##    <chr>    <lgl>   <chr>     <chr> <chr>    <chr> <chr>         <chr>       <chr> <chr>        <chr>  <dbl>
##  1 RADC-MAP NA      cognition cogn… freeRec… long… cts_wlii      word list …  <NA> no           ifels…    NA
##  2 RADC-MAP NA      cognition cogn… cuedRec… long… cts_wliii     word list …  <NA> no           ifels…    NA
##  3 RADC-MAP NA      cognition cogn… digitsF… long… cts_df        digits bac…  <NA> no           ifels…    NA
##  4 RADC-MAP NA      cognition cogn… digitsB… long… cts_db        digits for…  <NA> no           ifels…    NA
##  5 RADC-MAP NA      cognition cogn… catFlue… long… cts_catflu    category f…  <NA> no           ifels…    NA
##  6 RADC-MAP NA      cognition cogn… bosNami… long… cts_bname     Boston nam…  <NA> no           ifels…    NA
##  7 RADC-MAP NA      cognition cogn… progMat  long… cts_pmat      progressiv…  <NA> no           ifels…    NA
##  8 RADC-MAP NA      cognition cogn… digitSy… long… cts_sdmt      symbol dig…  <NA> no           ifels…    NA
##  9 RADC-MAP NA      covariat… age   ageBase… base… age_bl        The age at…  <NA> no           ifels…    NA
## 10 RADC-MAP NA      covariat… alco… alcohol  base… alcohol_g_bl  Grams of a… "\r\… no           ifels…    NA
## # ℹ 34 more rows
## # ℹ 3 more variables: maxi <dbl>, comp_rule <chr>, long_rule <chr>
…
map_cov

## # A tibble: 2,192 × 16
##    SID        age alcohol   BMI cancer diabetes education exercise gender heartProb married  mmse parkinsons
##    <chr>    <dbl>   <dbl> <dbl>  <dbl>    <dbl>     <dbl>    <dbl>  <dbl>     <dbl>   <dbl> <dbl>      <dbl>
##  1 00009121  80.0       1  26.8      0        0        12        1      0         0       1    29          0
##  2 00033027  81.0       0  32.6      0        1        14        0      0         0       1    29          0
##  3 00045071  87.5       1  28.2      0        1        16        1      1         1       1    18          0
##  4 00130005  89.8       0  27.8      0        0        15        1      0         1       1    29          0
##  5 00204228  65.2       0  36.6      0        1         8        1      1         0       1    27          0
##  6 00228190  73.5       1  23.0      1        0        22        1      0         0       1    29          0
##  7 00246264  90.0       0  24.0      0        0        16        1      0         0       1    27          0
##  8 00285563  84.7       0  27.0      0        0        12        1      0         0       1    28          0
##  9 00402800  78.7       0  17.2      0        0        16        1      0         0       1    17          0
## 10 00482428  81.4       1  NA        1        0        12        1      0         0       1    30          0
## # ℹ 2,182 more rows
## # ℹ 3 more variables: race <dbl>, smokes <dbl>, stroke <dbl>
2.2.4 Personality Variables

map_pers <- map_recode %>%
  filter(category == "pers") %>%
  select(-category) %>% 
  unnest(data) %>% 
  distinct() %>%
  group_by(SID, name) %>%
  filter(wave == min(wave)) %>%
  ungroup() %>%
  select(SID, name, wave, value)

map_pers

## # A tibble: 9,115 × 4
##    SID      name   wave value
##    <chr>    <chr> <dbl> <dbl>
##  1 00009121 C         0    35
##  2 00045071 C         0    38
##  3 00130005 C         0    31
##  4 00246264 C         0    33
##  5 00402800 C         0    24
##  6 00582981 C         0    37
##  7 00617643 C         0    34
##  8 00696418 C         0    27
##  9 00701662 C         0    31
## 10 00709354 C         0    40
## # ℹ 9,105 more rows
…
# create composites
map_out <- map_out %>%
  filter(wave > 0 & name != "dementia") %>%
  group_by(name, long_rule) %>%
  nest() %>%
  ungroup() %>%
  mutate(data = map2(data, long_rule, comp_fun)) %>%
  unnest(data) %>%
  select(-long_rule) %>%
  full_join(map_dem) %>%
  left_join(map_out_waves)

map_out

## # A tibble: 11,128 × 6
##    name        SID      value future  past o_year
##    <chr>       <chr>    <dbl>  <dbl> <dbl>  <dbl>
##  1 ageDementia 00045071  88.5     NA    NA      1
##  2 ageDementia 00285563  90.5     NA    NA     13
##  3 ageDementia 00668310  88.6     NA    NA      5
##  4 ageDementia 01243685  89.7     NA    NA      3
##  5 ageDementia 01797756  86.4     NA    NA     11
##  6 ageDementia 02108769  90.9     NA    NA      8
##  7 ageDementia 03227207  97.8     NA    NA     17
##  8 ageDementia 03380931  85.7     NA    NA      7
##  9 ageDementia 03806878  92.4     NA    NA      5
## 10 ageDementia 04330337 101.      NA    NA     15
## # ℹ 11,118 more rows
…
map_cog

## # A tibble: 2,189 × 2
##    SID      cognition
##    <chr>        <dbl>
##  1 00009121      7.55
##  2 00033027      6.17
##  3 00045071      4.84
##  4 00130005      6.59
##  5 00204228      5.81
##  6 00228190      7.38
##  7 00246264      6.16
##  8 00285563      5.79
##  9 00402800      4.14
## 10 00482428      6.58
## # ℹ 2,179 more rows
…
map_combined

## # A tibble: 42,999 × 24
##    SID    Trait p_year p_value Outcome o_value o_year   age alcohol   BMI cancer diabetes education exercise
##    <chr>  <chr>  <dbl>   <dbl> <chr>     <dbl>  <dbl> <dbl>   <dbl> <dbl>  <dbl>    <dbl>     <dbl>    <dbl>
##  1 00009… C          0      35 dement…     0       10  80.0       1  26.8      0        0        12        1
##  2 00045… C          0      38 ageDem…    88.5      1  87.5       1  28.2      0        1        16        1
##  3 00045… C          0      38 dement…     1        1  87.5       1  28.2      0        1        16        1
##  4 00130… C          0      31 dement…     0        4  89.8       0  27.8      0        0        15        1
##  5 00246… C          0      33 angiop…     2        8  90.0       0  24.0      0        0        16        1
##  6 00246… C          0      33 arteri…     2        8  90.0       0  24.0      0        0        16        1
##  7 00246… C          0      33 athero…     1        8  90.0       0  24.0      0        0        16        1
##  8 00246… C          0      33 braak       3        8  90.0       0  24.0      0        0        16        1
##  9 00246… C          0      33 cerad       2        8  90.0       0  24.0      0        0        16        1
## 10 00246… C          0      33 hipScl…     0        8  90.0       0  24.0      0        0        16        1
## # ℹ 42,989 more rows
## # ℹ 10 more variables: gender <dbl>, heartProb <dbl>, married <dbl>, mmse <dbl>, parkinsons <dbl>,
## #   race <dbl>, smokes <dbl>, stroke <dbl>, dementia <dbl>, cognition <dbl>
…
rm(list =ls()[grepl("map", ls())])

2.3 RUSH Religious Orders Study (ROS)

The RUSH Religious Orders Study (ROS) is an ongoing longitudinal study that began in 1994 (a2012overview?). These data are available, through application from https://www.radc.rush.edu/requests.htm.

Older (65 and above) Catholic nuns, priests, and brothers with no prior dementia diagnosis and who agreed to annual evaluations and eventual organ donation were recruited from more than 40 groups across the United States. Additional participants are recuited each year. Additional information and documentation on the data can be found at https://www.radc.rush.edu/docs/var/variables.htm.

Sample sizes vary bt year from 353 participants (1994) to 1487 participants, including 797 deceased participants with autopsy data (2019, 2020). This provides 99% power to detect a zero-order correlation effect size of ~.11, two-tailed at alpha .05.

(ros_codebook <- (codebook %>% filter(study == "ROS"))$codebook[[1]] %>%
  mutate(orig_itemname = str_to_lower(orig_itemname)))

## # A tibble: 42 × 15
##    study dataset category   name    itemname year  orig_itemname description scale reverse_code recode  mini
##    <chr> <lgl>   <chr>      <chr>   <chr>    <chr> <chr>         <chr>       <chr> <chr>        <chr>  <dbl>
##  1 ROS   NA      cognition  cognit… freeRec… long… cts_wlii      word list …  <NA> no           ifels…    NA
##  2 ROS   NA      cognition  cognit… cuedRec… long… cts_wliii     word list …  <NA> no           ifels…    NA
##  3 ROS   NA      cognition  cognit… digitsF… long… cts_df        digits bac…  <NA> no           ifels…    NA
##  4 ROS   NA      cognition  cognit… digitsB… long… cts_db        digits for…  <NA> no           ifels…    NA
##  5 ROS   NA      cognition  cognit… catFlue… long… cts_catflu    category f…  <NA> no           ifels…    NA
##  6 ROS   NA      cognition  cognit… bosNami… long… cts_bname     Boston nam…  <NA> no           ifels…    NA
##  7 ROS   NA      cognition  cognit… progMat  long… cts_pmat      progressiv…  <NA> no           ifels…    NA
##  8 ROS   NA      cognition  cognit… digitSy… long… cts_sdmt      symbol dig…  <NA> no           ifels…    NA
##  9 ROS   NA      covariates age     ageBase… base… age_bl        The age at…  <NA> no           ifels…    NA
## 10 ROS   NA      covariates alcohol alcohol  base… alcohol_g_bl  Grams of a… "\r\… no           ifels…    NA
## # ℹ 32 more rows
## # ℹ 3 more variables: maxi <dbl>, comp_rule <chr>, long_rule <chr>
…
ros_cov

## # A tibble: 1,485 × 14
##    SID       age alcohol   BMI cancer diabetes education exercise gender heartProb  mmse  race smokes stroke
##    <chr>   <dbl>   <dbl> <dbl>  <dbl>    <dbl>     <dbl>    <dbl>  <dbl>     <dbl> <dbl> <dbl>  <dbl>  <dbl>
##  1 000210…  80.0       0  19.9      0        0        22        1      0         1    18     0      0      0
##  2 003377…  82.2       0  42.8      0        0        22        1      1         0    27     0      0      0
##  3 003811…  70.3       0  29.7      0        0        20        0      0         0    30     0      0     NA
##  4 004702…  72.6       1  20.0      1        0        18        1      0         0    30     0      0      0
##  5 007567…  87.3       0  33.2      0        1        20        0      1         0    23     1      1      0
##  6 009850…  78.6       0  23.7      1        0        21        1      0         0    28     0      0      0
##  7 012114…  85.2       0  25.1      0        0        12        0      1         0    24     0      1      0
##  8 012370…  72.0       0  18.8      0        0        16        1      0         0    29     0      0      0
##  9 016795…  65.2       1  36.4      0        0        22        1      0         0    30     0      0      0
## 10 021057…  85.2       1  21.5      0        0        18        1      0         0    29     0      0      0
## # ℹ 1,475 more rows
2.3.3 Personality Variables

ros_pers <- ros_recode %>%
  filter(category == "pers") %>%
  select(-category) %>% 
  unnest(data) %>% 
  distinct() %>%
  group_by(SID, name) %>%
  filter(wave == min(wave)) %>%
  ungroup() %>%
  select(SID, name, wave, value)

ros_pers

## # A tibble: 7,569 × 4
##    SID      name   wave value
##    <chr>    <chr> <dbl> <dbl>
##  1 00021073 A         0    32
##  2 00337708 A         0    30
##  3 00381112 A         0    36
##  4 00470212 A         0    41
##  5 00756793 A         0    27
##  6 00985084 A         0    33
##  7 01211411 A         0    27
##  8 01237015 A         0    34
##  9 01679543 A         0    43
## 10 02105734 A         0    36
## # ℹ 7,559 more rows
…
# create composites
ros_out <- ros_out %>%
  filter(wave > 0 & name != "dementia") %>%
  group_by(name, long_rule) %>%
  nest() %>%
  ungroup() %>%
  mutate(data = map2(data, long_rule, comp_fun)) %>%
  unnest(data) %>%
  select(-long_rule) %>%
  full_join(ros_dem) %>%
  left_join(ros_out_waves)

ros_out

## # A tibble: 9,581 × 6
##    name        SID      value future  past o_year
##    <chr>       <chr>    <dbl>  <dbl> <dbl>  <dbl>
##  1 ageDementia 02495739  92.5     NA    NA     13
##  2 ageDementia 07299965  80.0     NA    NA     13
##  3 ageDementia 07660182  83.7     NA    NA      4
##  4 ageDementia 10100150  84.5     NA    NA     12
##  5 ageDementia 10100286  80.7     NA    NA     18
##  6 ageDementia 10101039  90.4     NA    NA      8
##  7 ageDementia 10101589 107.      NA    NA      6
##  8 ageDementia 10101741  92.4     NA    NA     12
##  9 ageDementia 10116694  82.2     NA    NA      5
## 10 ageDementia 10200901  96.2     NA    NA     23
## # ℹ 9,571 more rows
…
