Chapter 4 Compile Results | Personality Predictors of Dementia Diagnosis and Neuropathic Burden: A Mega-Analysis
…
  mutate_at(vars(estimate, conf.low, conf.high), 
            ~ifelse(abs(.) < .0014, sprintf("%.3f", .), sprintf("%.2f", .))) %>%
  # combine the effects, bold significance, factor and label study-specfic effects 
  mutate(est = sprintf("%s<br>[%s, %s]", estimate, conf.low, conf.high),
         est = ifelse(sig == "sig", sprintf("<strong>%s</strong>", est), est),
         study = mapvalues(study, c("RADC-MAP", "ADRC"), c("Rush-MAP", "WUSM-MAP")),
         study = factor(study, levels = c(studies_long, "Overall"),
                        labels = c(studies_long, "Overall"))) %>%
  # reshaping: remove extra columns, arrange by key variables, and make wide
  select(Outcome, Trait, Moderator, Covariate, study, term, est) %>%
  arrange(Outcome, Trait, Moderator, Covariate, study, term, est) %>%
  pivot_wider(names_from = "Outcome", values_from = "est") 
nested_mega_tab

## # A tibble: 1,521 × 16
##    Trait Moderator Covariate      study    term        Incident …¹ Braak…² CERAD Lewy …³ Gross…⁴ Gross…⁵ Cereb…⁶ Cereb…⁷ Arter…⁸ Hippo…⁹ TDP-4…˟
##    <fct> <fct>     <fct>          <fct>    <fct>       <chr>       <chr>   <chr> <chr>   <chr>   <chr>   <chr>   <chr>   <chr>   <chr>   <chr>  
##  1 E     None      Unadjusted     ROS      Personality 0.95<br>[0… 0.04<b… -0.0… 1.04<b… <stron… 0.95<b… -0.00<… 0.01<b… -0.01<… 0.96<b… 1.01<b…
##  2 E     None      Unadjusted     Rush-MAP Personality 0.95<br>[0… 0.02<b… <str… 0.99<b… 0.95<b… 0.98<b… -0.02<… 0.01<b… -0.01<… 0.99<b… 1.04<b…
##  3 E     None      Unadjusted     EAS      Personality 0.93<br>[0… 0.001<… <NA>  0.99<b… <NA>    <NA>    <NA>    <NA>    <NA>    0.99<b… <NA>   
##  4 E     None      Unadjusted     WUSM-MAP Personality <strong>0.… <stron… -0.0… 1.04<b… <NA>    0.96<b… 0.01<b… -0.01<… -0.01<… 0.92<b… 0.94<b…
##  5 E     None      Unadjusted     SATSA    Personality 0.93<br>[0… <NA>    <NA>  <NA>    <NA>    <NA>    <NA>    <NA>    <NA>    <NA>    <NA>   
##  6 E     None      Unadjusted     HRS      Personality <strong>0.… <NA>    <NA>  <NA>    <NA>    <NA>    <NA>    <NA>    <NA>    <NA>    <NA>   
##  7 E     None      Unadjusted     LISS     Personality 0.91<br>[0… <NA>    <NA>  <NA>    <NA>    <NA>    <NA>    <NA>    <NA>    <NA>    <NA>   
##  8 E     None      Unadjusted     GSOEP    Personality <strong>0.… <NA>    <NA>  <NA>    <NA>    <NA>    <NA>    <NA>    <NA>    <NA>    <NA>   
##  9 E     None      Unadjusted     Overall  Personality 0.93<br>[0… -0.01<… -0.0… 1.02<b… 0.95<b… 0.96<b… -0.01<… 0.02<b… -0.01<… 0.97<b… 1.00<b…
## 10 E     None      Fully Adjusted EAS      Personality 0.83<br>[0… <NA>    <NA>  <NA>    <NA>    <NA>    <NA>    <NA>    <NA>    <NA>    <NA>   
## # … with 1,511 more rows, and abbreviated variable names ¹​`Incident Dementia Diagnosis`, ²​`Braak Stage`, ³​`Lewy Body Disease`,
## #   ⁴​`Gross Cerebral Infarcts`, ⁵​`Gross Cerebral Microinfarcts`, ⁶​`Cerebral Atherosclerosis`, ⁷​`Cerebral Amyloid Angiopathy`,
## #   ⁸​Arteriolosclerosis, ⁹​`Hippocampal Sclerosis`, ˟​`TDP-43`
…
ipd_rx_tab <- nested_mega_tab %>%
  group_by(Moderator, Covariate) %>%
  nest() %>%
  ungroup() %>%
  mutate(tab = pmap(list(data, Moderator, Covariate), ipd_rx_tab_fun))
ipd_rx_tab

## # A tibble: 39 × 4
##    Moderator Covariate                          data               tab           
##    <fct>     <fct>                              <list>             <list>        
##  1 None      "Unadjusted"                       <tibble [63 × 14]> <kablExtr [1]>
##  2 None      "Fully Adjusted"                   <tibble [21 × 14]> <kablExtr [1]>
##  3 None      "Shared\nCovariates\nAdjusted"     <tibble [63 × 14]> <kablExtr [1]>
##  4 None      "Standard\nCovariates\nAdjusted"   <tibble [63 × 14]> <kablExtr [1]>
##  5 None      "All But One\nCovariate\nAdjusted" <tibble [55 × 14]> <kablExtr [1]>
##  6 Age       "Unadjusted"                       <tibble [63 × 14]> <kablExtr [1]>
##  7 Age       "Fully Adjusted"                   <tibble [16 × 14]> <kablExtr [1]>
##  8 Age       "Shared\nCovariates\nAdjusted"     <tibble [63 × 14]> <kablExtr [1]>
##  9 Age       "Standard\nCovariates\nAdjusted"   <tibble [63 × 14]> <kablExtr [1]>
## 10 Age       "All But One\nCovariate\nAdjusted" <tibble [55 × 14]> <kablExtr [1]>
## # … with 29 more rows
…
  mutate(file = map(Covariate, ~list.files(sprintf("%s/results/predicted/%s", local_path, .)))) %>%
  unnest(file) %>%
  separate(file, c("Outcome", "Trait", "Moderator"), sep = "_", remove = F) %>% 
  ## read in the files
  mutate(Moderator = str_remove(Moderator, ".RData"),
         pred.fx = map2(file, Covariate, ~loadRData(.x, .y, "pred.fx", "predicted")),
         pred.rx = map2(file, Covariate, ~loadRData(.x, .y, "pred.rx", "predicted"))) %>%
  select(-file) %>%
  left_join(
    outcomes %>% select(Outcome = short_name, link)
  ) %>%
  mutate_at(vars(pred.fx, pred.rx), ~ifelse(link == "factor", map(., ~(.) %>% mutate_at(vars(pred, lower, upper), exp)), .))
nested_mega_simp

## # A tibble: 1,678 × 7
##    Covariate Outcome  Trait Moderator pred.fx            pred.rx            link  
##    <chr>     <chr>    <chr> <chr>     <list>             <list>             <chr> 
##  1 fully     dementia A     age       <tibble [303 × 5]> <tibble [606 × 6]> factor
##  2 fully     dementia A     cognition <tibble [303 × 5]> <tibble [606 × 6]> factor
##  3 fully     dementia A     education <tibble [303 × 5]> <tibble [606 × 6]> factor
##  4 fully     dementia A     gender    <tibble [202 × 5]> <tibble [404 × 6]> factor
##  5 fully     dementia C     education <tibble [303 × 5]> <tibble [606 × 6]> factor
##  6 fully     dementia C     gender    <tibble [202 × 5]> <tibble [404 × 6]> factor
##  7 fully     dementia E     age       <tibble [303 × 5]> <tibble [606 × 6]> factor
##  8 fully     dementia E     cognition <tibble [303 × 5]> <tibble [606 × 6]> factor
##  9 fully     dementia E     education <tibble [303 × 5]> <tibble [606 × 6]> factor
## 10 fully     dementia E     gender    <tibble [202 × 5]> <tibble [404 × 6]> factor
## # … with 1,668 more rows
…
