Chapter 3 Models | Personality Predictors of Dementia Diagnosis and Neuropathic Burden: A Mega-Analysis
…
nested_data

## # A tibble: 420,195 × 22
##    study SID   Trait p_year p_value Outcome o_year o_value   age gender educa…¹ cogni…² alcohol smokes   BMI  race stroke cancer diabe…³ heart…⁴
##    <chr> <chr> <chr>  <dbl>   <dbl> <chr>    <dbl>   <dbl> <dbl>  <dbl>   <dbl>   <dbl>   <dbl>  <dbl> <dbl> <dbl>  <dbl>  <dbl>   <dbl>   <dbl>
##  1 ROS   0002… A          0      32 angiop…      2       3  80.0      0      22    4.19       0      0  19.9     0      0      0       0       1
##  2 ROS   0002… A          0      32 arteri…      2       0  80.0      0      22    4.19       0      0  19.9     0      0      0       0       1
##  3 ROS   0002… A          0      32 athero…      2       2  80.0      0      22    4.19       0      0  19.9     0      0      0       0       1
##  4 ROS   0002… A          0      32 braak        2       6  80.0      0      22    4.19       0      0  19.9     0      0      0       0       1
##  5 ROS   0002… A          0      32 cerad        2       1  80.0      0      22    4.19       0      0  19.9     0      0      0       0       1
##  6 ROS   0002… A          0      32 hipScl…      2       0  80.0      0      22    4.19       0      0  19.9     0      0      0       0       1
##  7 ROS   0002… A          0      32 lewyBo…      2       0  80.0      0      22    4.19       0      0  19.9     0      0      0       0       1
##  8 ROS   0002… A          0      32 vsclrI…      2       0  80.0      0      22    4.19       0      0  19.9     0      0      0       0       1
##  9 ROS   0002… A          0      32 vsclrM…      2       1  80.0      0      22    4.19       0      0  19.9     0      0      0       0       1
## 10 ROS   0002… A          0      32 tdp43        2       1  80.0      0      22    4.19       0      0  19.9     0      0      0       0       1
## # … with 420,185 more rows, 2 more variables: dementia <dbl>, SRhealth <dbl>, and abbreviated variable names ¹​education, ²​cognition, ³​diabetes,
## #   ⁴​heartProb
…
Center age at 60 years and education at 12 years.

nested_data <- nested_data %>%
  group_by(Trait, Outcome, study, p_year) %>%
  mutate_at(vars(p_value, SRhealth),  ~((. - min(., na.rm = T))/(max(., na.rm = T) - min(., na.rm = T))*10)) %>%
  mutate_at(vars(p_value, SRhealth),  ~ifelse(is.infinite(.), NA, .)) %>%
  mutate(CC = rowSums(cbind(stroke, cancer, diabetes, heartProb), na.rm = T)) %>%
  mutate_at(vars(alcohol, smokes, stroke, cancer, diabetes, heartProb, gender, dementia), factor) %>%
  mutate(age = age - 60
         , education = education - 12) %>%
  ungroup()
nested_data

## # A tibble: 420,195 × 23
##    study SID   Trait p_year p_value Outcome o_year o_value   age gender educa…¹ cogni…² alcohol smokes   BMI  race stroke cancer diabe…³ heart…⁴
##    <chr> <chr> <chr>  <dbl>   <dbl> <chr>    <dbl>   <dbl> <dbl> <fct>    <dbl>   <dbl> <fct>   <fct>  <dbl> <dbl> <fct>  <fct>  <fct>   <fct>  
##  1 ROS   0002… A          0    4.29 angiop…      2       3  20.0 0           10    4.19 0       0       19.9     0 0      0      0       1      
##  2 ROS   0002… A          0    4.29 arteri…      2       0  20.0 0           10    4.19 0       0       19.9     0 0      0      0       1      
##  3 ROS   0002… A          0    4.29 athero…      2       2  20.0 0           10    4.19 0       0       19.9     0 0      0      0       1      
##  4 ROS   0002… A          0    4.29 braak        2       6  20.0 0           10    4.19 0       0       19.9     0 0      0      0       1      
##  5 ROS   0002… A          0    4.29 cerad        2       1  20.0 0           10    4.19 0       0       19.9     0 0      0      0       1      
##  6 ROS   0002… A          0    4.29 hipScl…      2       0  20.0 0           10    4.19 0       0       19.9     0 0      0      0       1      
##  7 ROS   0002… A          0    4.29 lewyBo…      2       0  20.0 0           10    4.19 0       0       19.9     0 0      0      0       1      
##  8 ROS   0002… A          0    4.29 vsclrI…      2       0  20.0 0           10    4.19 0       0       19.9     0 0      0      0       1      
##  9 ROS   0002… A          0    4.29 vsclrM…      2       1  20.0 0           10    4.19 0       0       19.9     0 0      0      0       1      
## 10 ROS   0002… A          0    4.29 tdp43        2       1  20.0 0           10    4.19 0       0       19.9     0 0      0      0       1      
## # … with 420,185 more rows, 3 more variables: dementia <fct>, SRhealth <dbl>, CC <dbl>, and abbreviated variable names ¹​education, ²​cognition,
## #   ³​diabetes, ⁴​heartProb
…
nested_data <- nested_data %>%
  group_by(Trait, Outcome) %>%
  nest() %>%
  ungroup() %>%
  mutate(data = pmap(list(data, Trait, Outcome), save_fun))
nested_data 

## # A tibble: 96 × 3
##    Trait Outcome            data               
##    <chr> <chr>              <list>             
##  1 A     angiopathy         <tibble [909 × 21]>
##  2 A     arteriolosclerosis <tibble [926 × 21]>
##  3 A     atherosclerosis    <tibble [943 × 21]>
##  4 A     braak              <tibble [969 × 21]>
##  5 A     cerad              <tibble [889 × 21]>
##  6 A     hipSclerosis       <tibble [844 × 21]>
##  7 A     lewyBodyDis        <tibble [935 × 21]>
##  8 A     vsclrInfrcts       <tibble [934 × 21]>
##  9 A     vsclrMcrInfrcts    <tibble [934 × 21]>
## 10 A     tdp43              <tibble [791 × 21]>
## # … with 86 more rows
…
nested_data %>%
  # filter(Outcome != "dementia") %>%
  mutate(data = pmap(list(data, Trait, Outcome), mod_setup_fun))

Here’s one example:

load("/Volumes/Emorie/projects/dementia/prediction/data/mega-analysis/shared/A-angiopathy-gender.RData")
d2

## # A tibble: 817 × 11
##    study SID      p_year p_value o_year o_value gender   age education smokes alcohol
##    <chr> <chr>     <dbl>   <dbl>  <dbl>   <dbl> <fct>  <dbl>     <dbl> <fct>  <fct>  
##  1 ROS   00021073      0    4.29      2       3 0       20.0        10 0      0      
##  2 ROS   10100312      0    6.07     13       2 1       15.3         8 0      1      
##  3 ROS   10100448      0    5        15       0 1       12.4        11 1      1      
##  4 ROS   10100574      0    5.71      9       1 1       13.7         9 0      1      
##  5 ROS   10100736      0    6.07      9       0 1       20.8         2 1      1      
##  6 ROS   10101039      0    5.71      8       1 1       23.4         7 1      1      
##  7 ROS   10101291      0    4.29      1       0 1       21.5         3 1      0      
##  8 ROS   10101327      0    3.57      2       1 1       26.9         9 1      0      
##  9 ROS   10101589      0    6.07      6       1 1       42.1         8 0      0      
## 10 ROS   10101741      0    5        12       1 1       23.3        -2 0      0      
## # … with 807 more rows
…
